{
  "$schema": "../../node_modules/ng-packagr/ng-package.schema.json",
  "dest": "../../dist/tour-commons",
  "lib": {
    "entryFile": "src/public-api.ts"
  },
  "whitelistedNonPeerDependencies": ["openlayers"]
}